c4t1-kp-energy-consumption-initial
…
## # A tibble: 3 x 2
##   submeter .gaps
##   <chr>    <lgl>
## 1 AC       TRUE 
## 2 kitchen  TRUE 
## 3 laundry  TRUE

#counts gaps
yrs_tsb %>%
  count_gaps() 

## # A tibble: 165 x 4
##    submeter .from               .to                    .n
##    <chr>    <dttm>              <dttm>              <int>
##  1 AC       2007-01-14 18:36:00 2007-01-14 18:36:00     1
##  2 AC       2007-01-28 17:13:00 2007-01-28 17:13:00     1
##  3 AC       2007-02-22 22:58:00 2007-02-22 22:59:00     2
##  4 AC       2007-03-25 17:52:00 2007-03-25 17:52:00     1
##  5 AC       2007-04-28 00:21:00 2007-04-30 14:23:00  3723
##  6 AC       2007-06-01 19:14:00 2007-06-01 19:14:00     1
##  7 AC       2007-06-06 21:56:00 2007-06-06 21:56:00     1
##  8 AC       2007-06-09 11:44:00 2007-06-09 11:44:00     1
##  9 AC       2007-06-09 12:05:00 2007-06-09 12:05:00     1
## 10 AC       2007-06-09 17:55:00 2007-06-09 17:57:00     3
## # ... with 155 more rows
…
======================================================== EXPLORATION =======================================================

Weekly Average

#calculate weekly average for each submeter
yrs_tsb %>% 
  index_by(yearweek = yearweek(date_time)) %>% 
  summarise(avg_reading = mean(reading)) %>% 
  arrange(avg_reading)

## # A tsibble: 471 x 3 [1W]
## # Key:       submeter [3]
##    submeter yearweek avg_reading
##    <chr>      <week>       <dbl>
##  1 kitchen  2008 W09      0     
##  2 kitchen  2008 W33      0     
##  3 kitchen  2008 W34      0     
##  4 laundry  2007 W31      0.0395
##  5 kitchen  2008 W32      0.122 
##  6 kitchen  2007 W44      0.134 
##  7 kitchen  2007 W09      0.146 
##  8 kitchen  2009 W31      0.172 
##  9 kitchen  2009 W30      0.183 
## 10 kitchen  2009 W32      0.197 
## # ... with 461 more rows
…
Monthly Averages

# calculate monthly avg reading for each submeters
yrs_tsb %>% 
  index_by(yearmonth(date_time)) %>% 
  summarise(avg_reading = mean(reading)) %>% 
  arrange(avg_reading)

## # A tsibble: 108 x 3 [1M]
## # Key:       submeter [3]
##    submeter `yearmonth(date_time)` avg_reading
##    <chr>                     <mth>       <dbl>
##  1 kitchen                2008 Aug      0.0868
##  2 kitchen                2009 Jul      0.408 
##  3 laundry                2008 Aug      0.499 
##  4 kitchen                2009 Jun      0.726 
##  5 kitchen                2009 Aug      0.762 
##  6 laundry                2009 Jun      0.766 
##  7 kitchen                2007 Aug      0.812 
##  8 laundry                2009 Aug      0.856 
##  9 laundry                2008 Dec      0.884 
## 10 laundry                2007 Apr      0.889 
## # ... with 98 more rows
…
